<svg width="20" height="28" viewBox="0 0 20 28" fill="none" xmlns="http://www.w3.org/2000/svg">
<path fill-rule="evenodd" clip-rule="evenodd" d="M12 0V20L17 15L20 18L10 28L0 18L3 15L8 20V0H12Z" fill="#A4B6C8"/>
</svg>
